{
  "가디건": "01",
  "가죽자켓": "02",
  "간절기야상": "03",
  "겨울바지": "04",
  "귀도리": "05",
  "긴팔티": "06",
  "나시": "07",
  "내복": "08",
  "니트": "09",
  "두꺼운면바지": "10",
  "두꺼운야상": "11",
  "레깅스": "12",
  "맨투맨": "13",
  "면바지": "14",
  "목도리": "15",
  "민소매": "16",
  "반바지": "17",
  "반팔티": "18",
  "셔츠": "19",
  "스타킹": "20",
  "슬랙스": "21",
  "야상": "22",
  "얇은긴팔": "23",
  "얇은셔츠": "24",
  "원피스": "25",
  "자켓": "26",
  "청바지": "27",
  "코트": "28",
  "트렌치코트": "29",
  "패딩": "30",
  "패딩조끼": "31",
  "후드티": "32",
  "긴팔셔츠": "33",
  "반팔후드": "34",
  "셔츠니트": "35"
}