<?xml version="1.0" encoding="UTF-8" standalone="no"?>
<svg
   height="48"
   width="48"
   version="1.1"
   id="svg790"
   sodipodi:docname="35.svg"
   xml:space="preserve"
   inkscape:version="1.2.1 (9c6d41e410, 2022-07-14)"
   xmlns:inkscape="http://www.inkscape.org/namespaces/inkscape"
   xmlns:sodipodi="http://sodipodi.sourceforge.net/DTD/sodipodi-0.dtd"
   xmlns="http://www.w3.org/2000/svg"
   xmlns:svg="http://www.w3.org/2000/svg"><defs
     id="defs794" /><sodipodi:namedview
     id="namedview792"
     pagecolor="#ffffff"
     bordercolor="#000000"
     borderopacity="0.25"
     inkscape:showpageshadow="2"
     inkscape:pageopacity="0.0"
     inkscape:pagecheckerboard="0"
     inkscape:deskcolor="#d1d1d1"
     showgrid="false"
     inkscape:zoom="8.71875"
     inkscape:cx="7.7992832"
     inkscape:cy="41.290323"
     inkscape:window-width="1920"
     inkscape:window-height="1017"
     inkscape:window-x="-8"
     inkscape:window-y="-8"
     inkscape:window-maximized="1"
     inkscape:current-layer="svg790" /><path
     id="path883"
     d="m 12.118231,32.70319 h 18.770161 c 1.370519,0 2.532481,-0.484152 3.485887,-1.452454 0.953405,-0.968301 1.430107,-2.122815 1.430107,-3.463541 0,-1.370519 -0.476702,-2.532481 -1.430107,-3.485887 -0.953406,-0.953405 -2.115368,-1.430107 -3.485887,-1.430107 H 28.20694 v -1.340726 c 0,-2.115367 -0.737399,-3.91045 -2.212198,-5.385247 -1.474798,-1.474798 -3.26988,-2.212198 -5.385248,-2.212198 -1.519489,0 -2.912354,0.409666 -4.178595,1.228999 -1.266241,0.819332 -2.197301,1.929154 -2.793179,3.329468 l -0.357527,0.804435 H 12.02885 c -1.847223,0.05959 -3.411403,0.737399 -4.6925407,2.033434 -1.2811376,1.296035 -1.9217068,2.852767 -1.9217068,4.670195 0,1.847222 0.6554656,3.426299 1.9663977,4.737231 1.3109321,1.310931 2.8900088,1.966398 4.7372308,1.966398 z m 0,2.681451 c -2.5920696,0 -4.8042671,-0.916163 -6.6365922,-2.748487 -1.8323253,-1.832326 -2.7484879,-4.044524 -2.7484879,-6.636593 0,-2.353719 0.8416782,-4.454188 2.5250335,-6.301411 1.6833554,-1.847221 3.7763775,-2.860214 6.2790656,-3.038978 0.953405,-1.668458 2.212197,-2.986839 3.776378,-3.955141 1.564179,-0.968301 3.329468,-1.452452 5.295866,-1.452452 2.711245,0 4.98303,0.856574 6.815356,2.569724 1.832325,1.71315 2.957045,3.835964 3.37416,6.368446 2.353717,0.119175 4.223286,0.916162 5.608702,2.390961 1.385417,1.474798 2.078125,3.210294 2.078125,5.206485 0,2.085573 -0.737399,3.873207 -2.212197,5.362903 -1.474798,1.489696 -3.269881,2.234543 -5.385248,2.234543 z"
     style="stroke-width:0.893817" /><path
     style="stroke-width:0.709608"
     d="m 40.612409,17.389926 c -0.307497,0 -0.562861,0.101593 -0.763914,0.302649 -0.201056,0.201054 -0.300826,0.454594 -0.300826,0.762091 0,0.307497 0.09977,0.562859 0.300826,0.763914 0.201053,0.201056 0.456417,0.300826 0.763914,0.300826 h 3.192397 c 0.307496,0 0.562859,-0.09977 0.763914,-0.300826 0.201056,-0.201055 0.300826,-0.456417 0.300826,-0.763914 0,-0.307497 -0.09977,-0.561037 -0.300826,-0.762091 -0.201055,-0.201056 -0.456418,-0.302649 -0.763914,-0.302649 z"
     id="path991" /><path
     style="stroke-width:0.709608"
     d="m 29.257612,9.9403914 c -2.365355,0 -4.375348,0.8274296 -6.031096,2.4831776 -0.07872,0.07154 -0.142681,0.157512 -0.196905,0.2516 0.273828,0.02216 0.532842,0.164084 0.785793,0.253423 0.441947,0.191886 0.878447,0.395206 1.323633,0.579773 9.33e-4,4.24e-4 0.03309,0.01514 0.04011,0.01823 1.152107,-0.96982 2.510721,-1.458549 4.078465,-1.458549 1.774016,0 3.283334,0.621484 4.525146,1.863296 1.24181,1.24181 1.861471,2.749306 1.861471,4.523322 -0.03363,2.502971 -0.698216,3.512544 -1.679153,3.622668 0.02755,0.06872 0.05311,0.138526 0.08386,0.20602 0.09995,0.182782 0.202154,0.378192 0.351874,0.526902 0.06379,0.06336 0.13596,0.118301 0.204197,0.176848 0.219856,0.183943 0.458156,0.340418 0.694634,0.501376 0.236541,0.141237 0.456431,0.306168 0.678224,0.468558 0.856465,-1.048243 1.497847,-2.810432 1.795838,-5.502372 0,-2.365356 -0.82743,-4.375346 -2.483178,-6.031097 -1.655752,-1.65574 -3.667561,-2.4831766 -6.032917,-2.4831766 z"
     id="path987" /><path
     style="stroke-width:0.709608"
     d="m 39.529437,7.1016922 c -0.29567,0 -0.549209,0.1061754 -0.762092,0.3190575 L 36.53212,9.6906151 c -0.212882,0.212882 -0.319057,0.4618399 -0.319057,0.7456829 0,0.283843 0.106175,0.5328 0.319057,0.745682 0.212883,0.212883 0.461842,0.319058 0.745683,0.319058 0.283843,0 0.530977,-0.106175 0.743859,-0.319058 l 2.271689,-2.2716881 c 0.212883,-0.2128821 0.319058,-0.4600172 0.319058,-0.7438596 0,-0.2838427 -0.106175,-0.5328008 -0.319058,-0.7456826 C 40.080469,7.2078676 39.825106,7.1016922 39.529437,7.1016922 Z"
     id="path985" /><path
     style="stroke-width:0.709608"
     d="m 18.969378,7.1016922 c -0.283843,0 -0.532799,0.1061754 -0.745682,0.3190575 -0.212883,0.2128818 -0.319058,0.4664218 -0.319058,0.7620913 0,0.2956692 0.106175,0.551032 0.319058,0.7639146 l 2.271689,2.2352244 c 0.189226,0.189229 0.431781,0.282595 0.72745,0.282595 0.29567,0 0.549209,-0.09337 0.762092,-0.282595 0.212883,-0.212882 0.319057,-0.461839 0.319057,-0.745682 0,-0.283843 -0.106174,-0.5328009 -0.319057,-0.7456829 L 19.713238,7.4207497 C 19.500355,7.2078676 19.253222,7.1016922 18.969378,7.1016922 Z"
     id="path983" /><path
     style="stroke-width:0.709608"
     d="m 29.257612,2.844555 c -0.307496,0 -0.561036,0.09977 -0.762092,0.3008255 -0.201055,0.2010553 -0.300825,0.4545951 -0.300825,0.7620915 v 3.1942202 c 0,0.3074963 0.09977,0.5610362 0.300825,0.7620915 0.201056,0.2010551 0.454596,0.3026486 0.762092,0.3026486 0.307497,0 0.562859,-0.1015935 0.763915,-0.3026486 0.201055,-0.2010553 0.300825,-0.4545952 0.300825,-0.7620915 V 3.907472 c 0,-0.3074964 -0.09977,-0.5610362 -0.300825,-0.7620915 C 29.820471,2.9443255 29.565109,2.844555 29.257612,2.844555 Z"
     id="path870" /><g
     id="g1068"
     transform="matrix(0.83146807,0,0,0.83146807,1.0284905,8.0356112)" /><path
     d="m 12.095757,33.705379 c -1.220685,0.09809 -3.1660168,0.173829 -3.1660168,0.173829 l 1.1523438,2.423828 h 3.222657 z"
     id="path689" /><path
     d="m 10.766601,37.695049 1.320312,2.777344 3.144532,-0.03906 -1.273438,-2.738281 z"
     id="path637" /><path
     d="m 12.712944,41.968891 1.320312,2.777344 3.144532,-0.03906 -1.273438,-2.738281 z"
     id="path665" /><path
     d="m 21.866366,35.081723 c -1.220685,0.09809 -3.166016,0.173829 -3.166016,0.173829 l 1.152344,2.423828 h 3.222656 z"
     id="path731" /><path
     d="m 20.53721,39.071393 1.320312,2.777344 3.144532,-0.03906 -1.273438,-2.738281 z"
     id="path733" /><path
     d="m 22.483553,43.345235 1.320312,2.777344 3.144532,-0.03906 -1.273438,-2.738281 z"
     id="path735" /><path
     d="m 30.719413,34.967028 c -1.220685,0.09809 -3.166016,0.173829 -3.166016,0.173829 l 1.152344,2.423828 h 3.222656 z"
     id="path737" /><path
     d="m 29.390257,38.956698 1.320312,2.777344 3.144532,-0.03906 -1.273438,-2.738281 z"
     id="path739" /><path
     d="m 31.3366,43.23054 1.320312,2.777344 3.144532,-0.03906 -1.273438,-2.738281 z"
     id="path741" /></svg>
